{
    "version": "1.0.0",
    "summary": "Test Suites",
    "repository": "https://github.com/user/project.git",
    "license": "BSD3",
    "source-directories": [
        "../src/elm",
        "."
    ],
    "exposed-modules": [],
    "dependencies": {
        "eeue56/elm-html-test": "5.2.0 <= v < 6.0.0",
        "elm-community/elm-test": "4.0.0 <= v < 5.0.0",
        "elm-lang/core": "5.1.1 <= v < 6.0.0",
        "elm-lang/html": "2.0.0 <= v < 3.0.0",
        "lgastako/elm-select": "2.1.0 <= v < 3.0.0"
    },
    "elm-version": "0.18.0 <= v < 0.19.0"
}
